download
about-us
  donate
  vision
#  jobs
#  people
  contact
  news
    2019
    2018
    2017
    2016
    2015
    2014
    2013
    2012
  partners
docs
  get-involved
    communication
    coding
    report-a-bug
    source
    project-ideas
  tech
    infosec
    hard-problems
    limitations
    routing
    secure-email
  design
    overview
    bonafide
    nicknym
    transitional-key-validation
    soledad
  platform
    guide
      getting-started
      config
      nodes
      keys-and-certificates
      domains
      provider-configuration
      environments
      virtual-machines
      miscellaneous
      commands
    tutorials
      quick-start
      single-node-vpn
      single-node-email
      vagrant
    services
      couchdb
      openvpn
      monitor
      mx
      soledad
      tor
      webapp
    upgrading
      upgrade-0-10
      upgrade-0-9
      upgrade-0-8
    troubleshooting
      tests
      known-issues
      where-to-look
    details
      faq
      development
      ports
      under-the-hood
  client
    user-install
    bundle-testing
    dev-environment
    known-issues
    bitmask-firewall
